<svg id="shape_1" data-name="shape 1" xmlns="http://www.w3.org/2000/svg" width="84.57" height="29.723" viewBox="0 0 84.57 29.723">
    <defs>
        <style>
            .cls-1{fill:#888}
        </style>
    </defs>
    <g id="그룹_7871" data-name="그룹 7871">
        <g id="그룹_7857" data-name="그룹 7857" transform="translate(54.925)">
            <path id="패스_19648" data-name="패스 19648" class="cls-1" d="M590.968 16.2a5.825 5.825 0 1 1 5.826-5.824 5.83 5.83 0 0 1-5.826 5.824zm0-9.456a3.631 3.631 0 1 0 3.632 3.632 3.634 3.634 0 0 0-3.632-3.632z" transform="translate(-585.144 -4.55)"/>
        </g>
        <g id="그룹_7858" data-name="그룹 7858" transform="translate(54.925)">
            <path id="패스_19649" data-name="패스 19649" class="cls-1" d="M594.54 16.2h-7.14a2.253 2.253 0 0 1-2.251-2.251V6.8a2.254 2.254 0 0 1 2.251-2.25h7.145a2.257 2.257 0 0 1 2.249 2.25v7.145a2.257 2.257 0 0 1-2.254 2.255zm-7.14-9.456-.057 7.2 7.2.057a.06.06 0 0 0 .059-.057V6.8z" transform="translate(-585.144 -4.55)"/>
        </g>
        <g id="그룹_7859" data-name="그룹 7859">
            <path id="패스_19650" data-name="패스 19650" class="cls-1" d="M565.94 16.2a5.825 5.825 0 1 1 5.826-5.824 5.832 5.832 0 0 1-5.826 5.824zm0-9.456a3.631 3.631 0 1 0 3.632 3.632 3.635 3.635 0 0 0-3.632-3.632z" transform="translate(-560.114 -4.55)"/>
        </g>
        <g id="그룹_7860" data-name="그룹 7860" transform="translate(54.925 18.073)">
            <path id="패스_19651" data-name="패스 19651" class="cls-1" d="M594.54 24.436h-7.14a2.252 2.252 0 0 1-2.251-2.254V15.04a2.254 2.254 0 0 1 2.251-2.254h7.145a2.257 2.257 0 0 1 2.254 2.254v7.143a2.256 2.256 0 0 1-2.259 2.253zm-7.14-9.456-.057 7.2 7.2.059a.06.06 0 0 0 .059-.059v-7.14z" transform="translate(-585.144 -12.786)"/>
        </g>
        <g id="그룹_7861" data-name="그룹 7861" transform="translate(72.923)">
            <path id="패스_19652" data-name="패스 19652" class="cls-1" d="M602.742 16.2H595.6a2.255 2.255 0 0 1-2.251-2.251V6.8a2.255 2.255 0 0 1 2.251-2.25h7.145a2.255 2.255 0 0 1 2.249 2.25v7.145a2.255 2.255 0 0 1-2.252 2.255zM595.6 6.744l-.057 7.2 7.2.057a.057.057 0 0 0 .057-.057V6.8z" transform="translate(-593.346 -4.55)"/>
        </g>
        <g id="그룹_7864" data-name="그룹 7864" transform="translate(19.752 1.098)">
            <g id="그룹_7862" data-name="그룹 7862" transform="translate(3.63)">
                <path id="사각형_6150" data-name="사각형 6150" class="cls-1" d="M0 0h2.194v9.455H0z"/>
            </g>
            <g id="그룹_7863" data-name="그룹 7863" transform="translate(0 3.63)">
                <path id="사각형_6151" data-name="사각형 6151" class="cls-1" d="M0 0h9.455v2.194H0z"/>
            </g>
        </g>
        <g id="그룹_7867" data-name="그룹 7867" transform="translate(37.751 19.17)">
            <g id="그룹_7865" data-name="그룹 7865" transform="translate(3.63)">
                <path id="사각형_6152" data-name="사각형 6152" class="cls-1" d="M0 0h2.194v9.456H0z"/>
            </g>
            <g id="그룹_7866" data-name="그룹 7866" transform="translate(0 3.63)">
                <path id="사각형_6153" data-name="사각형 6153" class="cls-1" d="M0 0h9.455v2.194H0z"/>
            </g>
        </g>
        <g id="그룹_7870" data-name="그룹 7870" transform="translate(74.02 19.17)">
            <g id="그룹_7868" data-name="그룹 7868" transform="translate(3.63)">
                <path id="사각형_6154" data-name="사각형 6154" class="cls-1" d="M0 0h2.194v9.456H0z"/>
            </g>
            <g id="그룹_7869" data-name="그룹 7869" transform="translate(0 3.63)">
                <path id="사각형_6155" data-name="사각형 6155" class="cls-1" d="M0 0h9.455v2.194H0z"/>
            </g>
        </g>
    </g>
</svg>
