<svg id="i_logo_waynehills_home_w" xmlns="http://www.w3.org/2000/svg" width="300" height="27.46" viewBox="0 0 300 27.46">
    <defs>
        <style>
            .cls-2{fill:#fff}
        </style>
    </defs>
    <g id="그룹_5" data-name="그룹 5">
        <path id="패스_1" data-name="패스 1" d="M713.111 720.936c-.215.216-.187.422.15.938a13.262 13.262 0 0 0 3.971 3.482l.909.45 2.913.047 2.913.047.965.5a2.865 2.865 0 0 1 .908.582c-.028.056-.215.094-.412.094a.655.655 0 0 0-.487.15c-.112.141-.066.206.384.591.281.235.637.544.8.685l.281.244.056 1.914a16.4 16.4 0 0 1-.019 2.046 8.161 8.161 0 0 1-1.911 1.351c-.337.141-5.994 1.652-6.65 1.783-.15.028-.759.122-1.339.2a3.521 3.521 0 0 0-2.744 1.445 6.575 6.575 0 0 0-.74.863c0 .047.225.084.506.084.44 0 .534.038.7.244s.2.385.2 1.2c0 1.624-.309 1.905-2.444 2.224a12.677 12.677 0 0 0-1.489.3 5.986 5.986 0 0 0-.983 1.145 20.89 20.89 0 0 1-3.84 3.885c-.506.291-.759.591-.656.76s.262.094 1.114-.544a32.77 32.77 0 0 0 4.411-3.885l.468-.544 1.124-.272a11.072 11.072 0 0 0 4.926-2.271 3.365 3.365 0 0 0 1.058-1.83 26.318 26.318 0 0 1 3.962-.159c5.151-.066 8.41-.282 9.516-.629a3.932 3.932 0 0 1 .805-.188c.2 0 .206.019.094.15a23.089 23.089 0 0 1-2.566 1.727 4.466 4.466 0 0 0-1.358 1.135c0 .047.075.085.169.085a46.523 46.523 0 0 0 4.692-2.693c.965-.76 1.255-1.3.871-1.652-.225-.206-.478-.2-1.068.028a15.106 15.106 0 0 1-3.231.751c-.89 0-1.124-.225-1.208-1.154a11.173 11.173 0 0 0-.749-2.806 2.444 2.444 0 0 1-.225-1.342 2.084 2.084 0 0 1 .5-1.717c.178-.2.262-.206 1.48-.206 1.021 0 1.3-.028 1.4-.141a.3.3 0 0 0 .065-.272 47.479 47.479 0 0 0-6.134-3.9c-1-.516-1.143-.657-1.143-1.22 0-.291-.29-.713-.44-.629a1.272 1.272 0 0 0-.215.479 1.488 1.488 0 0 1-.272.563c-.571.507-2.6.413-3.812-.178a5.551 5.551 0 0 1-1.1-.826 2 2 0 0 1-.768-1.145c-.178-.629-.618-1.173-.946-1.173-.253 0-.356.263-.234.582a7.766 7.766 0 0 0 .7 1.051c.337.45.618.835.618.863 0 .122-.375-.009-.918-.328a14.832 14.832 0 0 1-2.744-2.618c-.466-.534-.559-.571-.784-.346z" transform="translate(-705.024 -720.805)" style="fill-rule:evenodd;fill:#fff"/>
        <g id="그룹_4" data-name="그룹 4" transform="translate(36.088 6.635)">
            <path id="패스_2" data-name="패스 2" class="cls-2" d="M689.532 1031.1v.37a1.279 1.279 0 0 0-.64.21 1.546 1.546 0 0 0-.46.55q-.06.12-.63 1.55l-4.25 11.191h-.39l-3.36-8.74-3.7 8.74h-.37l-4.46-11.071a11.878 11.878 0 0 0-.95-2.02 1.236 1.236 0 0 0-.91-.41v-.37h5.88v.37a1.659 1.659 0 0 0-.945.215.606.606 0 0 0-.235.485 5.909 5.909 0 0 0 .49 1.61l2.66 6.58 2.13-5.14-.56-1.44a10.8 10.8 0 0 0-.71-1.575 1.548 1.548 0 0 0-.575-.565 2.12 2.12 0 0 0-.955-.17v-.37h6.57v.37a3.639 3.639 0 0 0-.99.11.65.65 0 0 0-.33.235.621.621 0 0 0-.12.375 6.871 6.871 0 0 0 .45 1.41l2.47 6.421 2.21-5.81a12.031 12.031 0 0 0 .43-1.23 2.608 2.608 0 0 0 .08-.61.8.8 0 0 0-.28-.645 1.819 1.819 0 0 0-1.07-.255v-.37z" transform="translate(-669.411 -1030.792)"/>
            <path id="패스_3" data-name="패스 3" class="cls-2" d="M848.613 1038.422h-4.79l-.57 1.32a2.937 2.937 0 0 0-.28 1.09.906.906 0 0 0 .46.84 3.87 3.87 0 0 0 1.33.24v.37h-4.51v-.37a2.017 2.017 0 0 0 1.2-.605 8.044 8.044 0 0 0 1.16-2.045l4.85-10.821h.19l4.89 11.12a6.765 6.765 0 0 0 1.15 1.99 1.569 1.569 0 0 0 .96.36v.37h-6.56v-.37h.27a2.056 2.056 0 0 0 1.11-.22.535.535 0 0 0 .22-.46 1.222 1.222 0 0 0-.06-.37q-.02-.09-.3-.75zm-.34-.74-2.02-4.67-2.08 4.67z" transform="translate(-822.267 -1028.412)"/>
            <path id="패스_4" data-name="패스 4" class="cls-2" d="M975.51 1031.1v.37a2 2 0 0 0-1.03.39 10.389 10.389 0 0 0-1.58 2.29l-2.94 4.91v3.28a4.449 4.449 0 0 0 .11 1.305 1.014 1.014 0 0 0 .435.45 1.67 1.67 0 0 0 .865.2h.76v.37h-7.61v-.37h.71a1.841 1.841 0 0 0 .95-.21.957.957 0 0 0 .41-.48 4.127 4.127 0 0 0 .11-1.26v-2.72l-3.19-5.81a8.567 8.567 0 0 0-1.34-2.025 1.687 1.687 0 0 0-1.04-.315v-.37h6.5v.37h-.29a1.471 1.471 0 0 0-.825.17.465.465 0 0 0-.235.36 6.022 6.022 0 0 0 .8 1.81l2.45 4.49 2.44-4.09a5.422 5.422 0 0 0 .91-1.99.533.533 0 0 0-.26-.45 2.471 2.471 0 0 0-1.25-.3v-.37z" transform="translate(-930.418 -1030.792)"/>
            <path id="패스_5" data-name="패스 5" class="cls-2" d="m1105.528 1031.1 6.69 8.41v-5.83a2.76 2.76 0 0 0-.35-1.65 1.936 1.936 0 0 0-1.61-.56v-.37h4.48v.37a3.418 3.418 0 0 0-1.155.285 1.146 1.146 0 0 0-.46.57 3.89 3.89 0 0 0-.165 1.355v11.291h-.34l-9.17-11.291v8.62a1.9 1.9 0 0 0 .535 1.58 1.958 1.958 0 0 0 1.225.41h.32v.37h-4.81v-.37a2.178 2.178 0 0 0 1.56-.46 2.152 2.152 0 0 0 .44-1.53v-9.571l-.29-.36a2.639 2.639 0 0 0-.76-.71 2.288 2.288 0 0 0-.95-.19v-.37z" transform="translate(-1055.203 -1030.792)"/>
            <path id="패스_6" data-name="패스 6" class="cls-2" d="M1245.574 1031.882v5.52h.27a2.142 2.142 0 0 0 1.87-.81 4.983 4.983 0 0 0 .74-2.39h.38v7.1h-.38a5.319 5.319 0 0 0-.505-1.9 2.175 2.175 0 0 0-.895-.995 3.4 3.4 0 0 0-1.48-.255v3.82a5.506 5.506 0 0 0 .095 1.37.821.821 0 0 0 .355.41 1.666 1.666 0 0 0 .84.16h.81a4.371 4.371 0 0 0 4.69-3.56h.37l-.61 4.31H1240.4v-.37h.45a1.876 1.876 0 0 0 .95-.21.91.91 0 0 0 .4-.48 4.115 4.115 0 0 0 .11-1.26v-8.921a7.1 7.1 0 0 0-.05-1.13.956.956 0 0 0-.37-.54 1.721 1.721 0 0 0-1.04-.28h-.45v-.37h11.351v4.01h-.38a4.891 4.891 0 0 0-.815-2.11 3.027 3.027 0 0 0-1.485-.94 8.041 8.041 0 0 0-2.1-.18z" transform="translate(-1180.149 -1030.792)"/>
            <path id="패스_7" data-name="패스 7" class="cls-2" d="M1420.265 1038.142v4.2a4.278 4.278 0 0 0 .115 1.3 1.03 1.03 0 0 0 .45.455 1.8 1.8 0 0 0 .905.2h.45v.37h-7.09v-.37h.45a1.875 1.875 0 0 0 .95-.21.912.912 0 0 0 .4-.48 4.131 4.131 0 0 0 .11-1.26v-8.921a4.47 4.47 0 0 0-.11-1.3 1 1 0 0 0-.445-.455 1.8 1.8 0 0 0-.905-.2h-.45v-.37h7.09v.37h-.45a1.877 1.877 0 0 0-.951.21.957.957 0 0 0-.41.48 4.111 4.111 0 0 0-.11 1.26v3.84h4.79v-3.84a4.457 4.457 0 0 0-.11-1.3 1 1 0 0 0-.45-.455 1.826 1.826 0 0 0-.91-.2h-.44v-.37h7.08v.37h-.44a1.84 1.84 0 0 0-.95.21.956.956 0 0 0-.41.48 4.123 4.123 0 0 0-.11 1.26v8.921a4.459 4.459 0 0 0 .11 1.3 1 1 0 0 0 .45.455 1.826 1.826 0 0 0 .91.2h.44v.37h-7.08v-.37h.44a1.842 1.842 0 0 0 .95-.21.956.956 0 0 0 .41-.48 4.12 4.12 0 0 0 .11-1.26v-4.2z" transform="translate(-1336.403 -1030.792)"/>
            <path id="패스_8" data-name="패스 8" class="cls-2" d="M1571.369 1044.293v.37h-7.09v-.37h.45a1.874 1.874 0 0 0 .95-.21.909.909 0 0 0 .4-.48 4.122 4.122 0 0 0 .11-1.26v-8.921a4.46 4.46 0 0 0-.11-1.3 1 1 0 0 0-.445-.455 1.8 1.8 0 0 0-.9-.2h-.45v-.37h7.09v.37h-.45a1.875 1.875 0 0 0-.95.21.957.957 0 0 0-.41.48 4.12 4.12 0 0 0-.11 1.26v8.921a4.268 4.268 0 0 0 .115 1.3 1.03 1.03 0 0 0 .45.455 1.8 1.8 0 0 0 .905.2z" transform="translate(-1469.851 -1030.792)"/>
            <path id="패스_9" data-name="패스 9" class="cls-2" d="m1650.306 1039.9-.51 4.76h-12.041v-.37h.45a1.875 1.875 0 0 0 .95-.21.911.911 0 0 0 .4-.48 4.117 4.117 0 0 0 .11-1.26v-8.921a4.454 4.454 0 0 0-.11-1.3 1 1 0 0 0-.445-.455 1.8 1.8 0 0 0-.905-.2h-.45v-.37h7.23v.37h-.59a1.873 1.873 0 0 0-.95.21.956.956 0 0 0-.41.48 4.127 4.127 0 0 0-.11 1.26v8.64a4.387 4.387 0 0 0 .12 1.325.8.8 0 0 0 .47.425 4.753 4.753 0 0 0 1.21.09h1.13a3.828 3.828 0 0 0 1.8-.38 3.357 3.357 0 0 0 1.245-1.2 9.731 9.731 0 0 0 1-2.42z" transform="translate(-1535.569 -1030.792)"/>
            <path id="패스_10" data-name="패스 10" class="cls-2" d="m1778.117 1039.9-.51 4.76h-12.041v-.37h.45a1.875 1.875 0 0 0 .95-.21.91.91 0 0 0 .4-.48 4.117 4.117 0 0 0 .11-1.26v-8.921a4.454 4.454 0 0 0-.11-1.3 1 1 0 0 0-.445-.455 1.8 1.8 0 0 0-.905-.2h-.45v-.37h7.23v.37h-.59a1.874 1.874 0 0 0-.95.21.956.956 0 0 0-.41.48 4.129 4.129 0 0 0-.11 1.26v8.64a4.4 4.4 0 0 0 .12 1.325.8.8 0 0 0 .47.425 4.755 4.755 0 0 0 1.21.09h1.13a3.827 3.827 0 0 0 1.8-.38 3.356 3.356 0 0 0 1.245-1.2 9.721 9.721 0 0 0 1-2.42z" transform="translate(-1649.892 -1030.792)"/>
            <path id="패스_11" data-name="패스 11" class="cls-2" d="m1908.4 1028.157.11 4.52h-.41a4.629 4.629 0 0 0-1.425-2.735 3.583 3.583 0 0 0-2.455-1.035 2.3 2.3 0 0 0-1.615.545 1.659 1.659 0 0 0-.595 1.255 1.524 1.524 0 0 0 .21.8 3.4 3.4 0 0 0 .93.93 20.961 20.961 0 0 0 2.17 1.17 9.65 9.65 0 0 1 3.21 2.21 3.74 3.74 0 0 1 .82 2.38 3.849 3.849 0 0 1-1.325 2.925 4.763 4.763 0 0 1-3.365 1.225 5.432 5.432 0 0 1-1.21-.13 9.139 9.139 0 0 1-1.43-.49 2.167 2.167 0 0 0-.79-.2.98.98 0 0 0-.55.2 1.4 1.4 0 0 0-.47.61h-.37v-5.12h.37a5.871 5.871 0 0 0 1.7 3.3 3.967 3.967 0 0 0 2.705 1.135 2.539 2.539 0 0 0 1.785-.61 1.84 1.84 0 0 0 .41-2.35 2.957 2.957 0 0 0-.775-.855 11.72 11.72 0 0 0-1.84-1.055 15.89 15.89 0 0 1-2.66-1.55 4.754 4.754 0 0 1-1.245-1.43 3.547 3.547 0 0 1-.435-1.74 3.681 3.681 0 0 1 1.19-2.76 4.163 4.163 0 0 1 3-1.14 5.1 5.1 0 0 1 1.28.16 6.389 6.389 0 0 1 1.145.445 2.7 2.7 0 0 0 .945.325.535.535 0 0 0 .41-.16 1.843 1.843 0 0 0 .28-.77z" transform="translate(-1769.998 -1028.157)"/>
            <path id="패스_12" data-name="패스 12" class="cls-2" d="M2052.916 1130.651a1.665 1.665 0 1 1-1.175.49 1.605 1.605 0 0 1 1.175-.49z" transform="translate(-1905.446 -1119.861)"/>
            <path id="패스_13" data-name="패스 13" class="cls-2" d="M2148.511 1031.1v.37a2.2 2.2 0 0 0-1.32.79 12.192 12.192 0 0 0-1.25 2.35l-4.67 10.36h-.33l-4.65-10.78a13.747 13.747 0 0 0-1.125-2.29 1.609 1.609 0 0 0-1.075-.43v-.37h6.5v.37h-.22a2.286 2.286 0 0 0-1.2.22.492.492 0 0 0-.23.44 1.4 1.4 0 0 0 .08.425q.08.245.54 1.315l2.89 6.75 2.68-6.01q.479-1.09.59-1.46a2.277 2.277 0 0 0 .11-.63.9.9 0 0 0-.16-.53.986.986 0 0 0-.469-.35 3.167 3.167 0 0 0-1.14-.17v-.37z" transform="translate(-1979.525 -1030.792)"/>
            <path id="패스_14" data-name="패스 14" class="cls-2" d="M2280.181 1031.882v5.52h.27a2.142 2.142 0 0 0 1.87-.81 4.985 4.985 0 0 0 .74-2.39h.38v7.1h-.38a5.326 5.326 0 0 0-.505-1.9 2.175 2.175 0 0 0-.9-.995 3.4 3.4 0 0 0-1.48-.255v3.82a5.486 5.486 0 0 0 .1 1.37.82.82 0 0 0 .355.41 1.666 1.666 0 0 0 .84.16h.81a4.37 4.37 0 0 0 4.69-3.56h.37l-.61 4.31h-11.721v-.37h.45a1.876 1.876 0 0 0 .95-.21.911.911 0 0 0 .4-.48 4.124 4.124 0 0 0 .11-1.26v-8.921a7.2 7.2 0 0 0-.05-1.13.957.957 0 0 0-.37-.54 1.719 1.719 0 0 0-1.04-.28h-.45v-.37h11.351v4.01h-.38a4.892 4.892 0 0 0-.815-2.11 3.028 3.028 0 0 0-1.485-.94 8.045 8.045 0 0 0-2.1-.18z" transform="translate(-2105.577 -1030.792)"/>
            <path id="패스_15" data-name="패스 15" class="cls-2" d="m2406.492 1031.1 6.69 8.41v-5.83a2.755 2.755 0 0 0-.35-1.65 1.934 1.934 0 0 0-1.61-.56v-.37h4.48v.37a3.427 3.427 0 0 0-1.156.285 1.148 1.148 0 0 0-.46.57 3.891 3.891 0 0 0-.165 1.355v11.291h-.34l-9.17-11.291v8.62a1.9 1.9 0 0 0 .535 1.58 1.96 1.96 0 0 0 1.225.41h.32v.37h-4.81v-.37a2.177 2.177 0 0 0 1.56-.46 2.151 2.151 0 0 0 .44-1.53v-9.571l-.29-.36a2.637 2.637 0 0 0-.76-.71 2.288 2.288 0 0 0-.95-.19v-.37z" transform="translate(-2218.878 -1030.792)"/>
            <path id="패스_16" data-name="패스 16" class="cls-2" d="M2556.682 1031.1v3.67h-.36a5.785 5.785 0 0 0-.71-1.825 2.736 2.736 0 0 0-1.07-.885 3.428 3.428 0 0 0-1.33-.18h-1.01v10.461a4.249 4.249 0 0 0 .115 1.3 1.028 1.028 0 0 0 .449.455 1.821 1.821 0 0 0 .915.2h.45v.37h-7.1v-.37h.45a1.874 1.874 0 0 0 .95-.21.955.955 0 0 0 .41-.48 4.135 4.135 0 0 0 .11-1.26v-10.461h-.98a2.85 2.85 0 0 0-1.99.58 3.833 3.833 0 0 0-1.1 2.31h-.38v-3.67z" transform="translate(-2346.629 -1030.792)"/>
            <path id="패스_17" data-name="패스 17" class="cls-2" d="M2669.844 1031.1h7v.37h-.35a2.452 2.452 0 0 0-1.085.165.937.937 0 0 0-.42.455 4.883 4.883 0 0 0-.125 1.45v6.64a6.763 6.763 0 0 0 .275 2.41 2.29 2.29 0 0 0 .905.98 2.973 2.973 0 0 0 1.59.39 3.412 3.412 0 0 0 1.875-.5 3.039 3.039 0 0 0 1.16-1.365 8.3 8.3 0 0 0 .385-3.03v-5.53a3.207 3.207 0 0 0-.19-1.3 1.141 1.141 0 0 0-.48-.54 2.845 2.845 0 0 0-1.27-.23v-.37h4.69v.37h-.28a1.808 1.808 0 0 0-.95.23 1.3 1.3 0 0 0-.55.69 3.456 3.456 0 0 0-.13 1.15v5.15a13.4 13.4 0 0 1-.315 3.45 3.85 3.85 0 0 1-1.535 1.95 5.546 5.546 0 0 1-3.33.89 6.33 6.33 0 0 1-2.72-.47 4 4 0 0 1-1.85-1.64 5.677 5.677 0 0 1-.54-2.69v-6.64a4.7 4.7 0 0 0-.13-1.455.976.976 0 0 0-.45-.455 2.731 2.731 0 0 0-1.18-.16z" transform="translate(-2458.649 -1030.792)"/>
            <path id="패스_18" data-name="패스 18" class="cls-2" d="M2812.5 1038.482v3.8a4.193 4.193 0 0 0 .135 1.385.985.985 0 0 0 .475.455 3.2 3.2 0 0 0 1.27.17v.37h-6.94v-.37a3.108 3.108 0 0 0 1.275-.175 1.02 1.02 0 0 0 .47-.455 4.151 4.151 0 0 0 .135-1.38v-8.8a4.2 4.2 0 0 0-.135-1.385.989.989 0 0 0-.475-.455 3.2 3.2 0 0 0-1.27-.17v-.37h6.3a13.757 13.757 0 0 1 3.6.34 3.625 3.625 0 0 1 1.86 1.255 3.367 3.367 0 0 1 .72 2.145 3.2 3.2 0 0 1-1.08 2.48 4.467 4.467 0 0 1-1.93.93l3.26 4.59a6.916 6.916 0 0 0 .909 1.11 1.7 1.7 0 0 0 .95.34v.37h-4.27l-4.37-6.18zm0-6.65v5.94h.57a6.369 6.369 0 0 0 2.08-.255 2.07 2.07 0 0 0 1.085-.92 3.37 3.37 0 0 0 .4-1.735 2.634 2.634 0 0 0-3.06-3.03z" transform="translate(-2581.759 -1030.792)"/>
            <path id="패스_19" data-name="패스 19" class="cls-2" d="M2951.439 1031.882v5.52h.271a2.142 2.142 0 0 0 1.87-.81 4.985 4.985 0 0 0 .74-2.39h.38v7.1h-.38a5.321 5.321 0 0 0-.505-1.9 2.18 2.18 0 0 0-.9-.995 3.405 3.405 0 0 0-1.48-.255v3.82a5.5 5.5 0 0 0 .1 1.37.823.823 0 0 0 .355.41 1.666 1.666 0 0 0 .84.16h.81a4.371 4.371 0 0 0 4.69-3.56h.37l-.61 4.31h-11.72v-.37h.45a1.876 1.876 0 0 0 .95-.21.911.911 0 0 0 .4-.48 4.135 4.135 0 0 0 .11-1.26v-8.921a7.064 7.064 0 0 0-.05-1.13.956.956 0 0 0-.37-.54 1.721 1.721 0 0 0-1.04-.28h-.45v-.37h11.351v4.01h-.38a4.9 4.9 0 0 0-.815-2.11 3.028 3.028 0 0 0-1.485-.94 8.045 8.045 0 0 0-2.1-.18z" transform="translate(-2705.973 -1030.792)"/>
            <path id="패스_20" data-name="패스 20" class="cls-2" d="m3088.814 1028.157.11 4.52h-.41a4.629 4.629 0 0 0-1.425-2.735 3.582 3.582 0 0 0-2.455-1.035 2.3 2.3 0 0 0-1.615.545 1.659 1.659 0 0 0-.6 1.255 1.521 1.521 0 0 0 .21.8 3.393 3.393 0 0 0 .93.93 20.953 20.953 0 0 0 2.17 1.17 9.652 9.652 0 0 1 3.21 2.21 3.739 3.739 0 0 1 .82 2.38 3.849 3.849 0 0 1-1.325 2.925 4.763 4.763 0 0 1-3.365 1.225 5.433 5.433 0 0 1-1.21-.13 9.15 9.15 0 0 1-1.43-.49 2.165 2.165 0 0 0-.79-.2.979.979 0 0 0-.55.2 1.4 1.4 0 0 0-.47.61h-.37v-5.12h.37a5.866 5.866 0 0 0 1.695 3.3 3.966 3.966 0 0 0 2.7 1.135 2.539 2.539 0 0 0 1.785-.61 1.839 1.839 0 0 0 .41-2.35 2.959 2.959 0 0 0-.775-.855 11.708 11.708 0 0 0-1.84-1.055 15.881 15.881 0 0 1-2.66-1.55 4.751 4.751 0 0 1-1.245-1.43 3.546 3.546 0 0 1-.435-1.74 3.682 3.682 0 0 1 1.19-2.76 4.162 4.162 0 0 1 3-1.14 5.1 5.1 0 0 1 1.28.16 6.41 6.41 0 0 1 1.145.445 2.7 2.7 0 0 0 .945.325.534.534 0 0 0 .41-.16 1.837 1.837 0 0 0 .28-.77z" transform="translate(-2825.852 -1028.157)"/>
        </g>
    </g>
</svg>
