<svg xmlns="http://www.w3.org/2000/svg" width="30" height="30" viewBox="0 0 30 30">
    <path data-name="Icon awesome-arrow-down" d="m19.058 10.975 1.017 1.017a1.1 1.1 0 0 1 0 1.553l-8.9 8.9a1.1 1.1 0 0 1-1.553 0l-8.9-8.9a1.1 1.1 0 0 1 0-1.553l1.017-1.017a1.1 1.1 0 0 1 1.571.018l5.258 5.519V3.349a1.1 1.1 0 0 1 1.1-1.1h1.462a1.1 1.1 0 0 1 1.1 1.1v13.163l5.258-5.519a1.092 1.092 0 0 1 1.571-.018z" transform="rotate(-90 14.073 11.323)" style="fill:#fff"/>
    <path data-name="사각형 6062" transform="rotate(-90 15 15)" style="fill:none" d="M0 0h30v30H0z"/>
</svg>
