<svg xmlns="http://www.w3.org/2000/svg" width="300" height="69" viewBox="0 0 300 69">
    <rect data-name="사각형 6" width="300" height="69" rx="8" style="fill:#7450ff"/>
    <text data-name="영상 자동 제작하기" transform="translate(57 45)" style="fill:#fff;font-size:24px;font-family:NotoSansCJKkr-Regular,Noto Sans CJK KR"><tspan x="0" y="0">영상 자동 제작하기</tspan></text>
</svg>
