<svg xmlns="http://www.w3.org/2000/svg" width="70" height="70" viewBox="0 0 70 70">
    <g data-name="그룹 12">
        <g data-name="그룹 10">
            <path data-name="합치기 1" d="M0 25.155V12.578A12.314 12.314 0 0 1 12.032 0a12.314 12.314 0 0 1 12.032 12.578v12.577a12.314 12.314 0 0 1-12.032 12.578A12.314 12.314 0 0 1 0 25.155zm3.008-12.577v12.577a9.245 9.245 0 0 0 9.024 9.433 9.245 9.245 0 0 0 9.024-9.433V12.578a9.245 9.245 0 0 0-9.024-9.433 9.245 9.245 0 0 0-9.024 9.433zm6.781 1.251v-1.724H9.8a2.483 2.483 0 0 1-.02-.313 2.259 2.259 0 1 1 4.513 0 2.483 2.483 0 0 1-.02.313h.071v1.724a2.275 2.275 0 0 1-4.55 0z" transform="translate(22.968 8.908)" style="fill:#fff"/>
        </g>
        <path data-name="패스 60" d="m1585.51 63.985 7.781 7.781 7.781-7.781" transform="translate(-1557.367 -10.674)" style="stroke:#fff;stroke-linecap:round;stroke-width:4px;fill:none"/>
    </g>
    <path data-name="사각형 11" style="fill:none" d="M0 0h70v70H0z"/>
</svg>
