<svg xmlns="http://www.w3.org/2000/svg" width="30" height="30" viewBox="0 0 30 30">
    <g data-name="그룹 7386">
        <path data-name="사각형 5572" style="fill:none" d="M0 0h30v30H0z"/>
        <g data-name="그룹 7158">
            <path data-name="패스 316" d="M201.743 117.833h9.579v-7.745h-2.607v-3.019h2.607v-2.226a3.637 3.637 0 0 1 3.882-3.991 21.33 21.33 0 0 1 2.33.119v2.7h-1.6c-1.253 0-1.5.6-1.5 1.47v1.927h2.988l-.389 3.019h-2.6v7.745h5.1a1.1 1.1 0 0 0 1.1-1.1V98.937a1.1 1.1 0 0 0-1.1-1.1h-17.79a1.1 1.1 0 0 0-1.1 1.1v17.792a1.1 1.1 0 0 0 1.1 1.104z" transform="translate(-195.64 -92.832)" style="fill:#dedede"/>
        </g>
    </g>
</svg>
